%YAML 1.1
%TAG !u! tag:unity3d.com,2011:
--- !u!1045 &1
EditorBuildSettings:
  m_ObjectHideFlags: 0
  serializedVersion: 2
  m_Scenes:
  - enabled: 0
    path: 
    guid: 00000000000000000000000000000000
  - enabled: 0
    path: Assets/Scenes/config.unity
    guid: 234fc9636b5351f43a8c5744effd0057
  - enabled: 1
    path: Assets/Scenes/main.unity
    guid: 120599bc02f809b4ebd773aa6b9e0051
  m_configObjects: {}
